127977 894625 525
624129 501928 470
454692 957839 525
251222 727611 509
754158 253074 509
814673 364030 509
618107 359554 470
926724 65083 525
356002 132511 443
781240 833071 468
360809 716538 509
791186 631593 504
139595 205024 383
403095 801160 509
779308 526846 509
456164 663378 509
982384 132995 525
455501 54495 449
899243 348667 525
778433 983757 525
161527 894371 525
258006 1202 443
612546 518429 452
78555 20547 351
426250 219581 449
643978 186012 509
440822 373808 449
566329 329183 470
973080 138493 525
309429 251684 407
821925 591119 509
676198 413411 509
941853 684221 525
828121 400134 509
561440 817422 509
558265 738276 509
787637 405655 509
850791 241390 525
129824 94745 354
624452 476754 470
748798 232898 509
777477 893381 525
861725 830642 525
27224 478842 449
418731 742591 509
762133 755568 380
282256 345118 389
455494 990863 525
357085 208313 443
333937 119845 443
701289 829124 504
559320 617844 447
720444 358923 509
382128 903960 525
530444 18981 470
465939 145383 449
490279 480933 382
334745 425896 449
846931 164958 525
260147 821400 509
978773 989177 427
478635 855728 525
724144 549141 509
364310 343306 441
691048 427092 509
471698 423558 444
4766 375842 443
629398 576495 509
827768 479730 509
832851 178410 509
11478 255182 443
529793 8546 470
62386 256219 443
578197 731096 509
144469 870892 525
933199 472451 525
934824 212837 525
517631 288895 470
8124 559675 470
172977 447729 449
816919 788560 468
501484 356335 449
590045 658243 509
817804 447402 509
575759 210765 470
924024 849647 476
366452 636958 509
860686 341736 525
385510 934401 525
814101 566535 509
233449 364232 441
533334 375978 470
683926 524487 509
821822 187388 509
73180 686083 509
279648 189201 443
467110 331087 449
665294 864595 525
949427 500171 525
930907 244180 525
824267 303525 509
953326 277656 525
201756 598360 470
727595 722930 380
584573 493909 470
332148 302090 384
553087 26316 470
174408 430913 449
3095 41530 324
798247 828950 450
960326 323219 525
847376 469128 525
673516 915864 525
533179 939295 525
536275 715167 509
461634 182281 449
916826 411125 525
357484 775401 509
203628 888523 525
214595 304450 443
614435 302269 470
615556 776572 509
950255 57096 525
855259 238296 525
896385 887666 401
802384 877179 525
215313 770985 509
90383 602758 470
596554 142293 470
630198 462584 509
798576 486693 509
528679 186099 470
398658 369304 436
185513 304885 443
884872 104107 525
870681 590774 525
953861 269440 525
902022 534926 525
680743 13162 509
663284 484553 509
989256 441301 525
923091 328962 525
124300 128251 331
435049 210611 449
796153 641765 504
431627 350342 449
102890 311286 443
316528 315606 322
201303 78803 383
855200 344301 525
293431 898474 525
747816 165788 509
861883 699745 525
903577 304531 525
7712 267612 443
870700 259100 525
22552 300609 443
607431 760035 509
756415 701845 504
329523 891367 525
723635 521052 509
700307 119715 509
286126 733265 509
842127 208000 525
965362 514305 525
16803 887572 525
527903 572998 452
611369 19258 470
798631 212312 509
986276 386927 525
143308 400928 443
499192 581385 470
602302 685699 509
286302 742250 509
359786 364231 410
707946 198023 509
934752 265705 525
584153 759839 509
282320 649257 509
269536 893870 525
398808 394390 405
744180 395526 509
316980 617244 470
343273 354418 441
288552 981997 525
221413 560586 470
995721 914922 507
881620 272008 525
444791 277097 449
40520 187931 383
658395 221186 509
353330 294975 441
901909 436611 525
406538 959389 525
389397 265628 441
911648 941846 507
177400 319227 443
160694 780037 509
739114 753664 424
126102 86638 354
280347 411720 449
196689 598737 470
266108 470215 449
261120 104189 443
56869 906104 525
637038 909450 525
774938 147713 509
807491 928096 525
581090 765368 509
937210 800595 525
938881 620313 525
116236 347344 443
717487 632 509
615603 691588 509
432893 656405 509
541536 135422 470
776478 453104 509
692046 757263 504
485428 60797 449
778902 337071 509
787371 255644 509
231473 657950 509
844600 803459 525
627286 181646 509
466864 836961 509
230370 611909 470
20806 445058 449
229077 421243 449
609117 279206 470
625438 771348 509
556135 96899 470
28327 211458 383
194160 340359 443
777733 954686 525
530544 349987 470
402777 889200 525
171517 248234 443
235774 252745 368
955314 95187 525
817234 173961 509
48858 318923 443
301290 735863 509
957765 500805 525
113647 549418 470
373389 731710 509
488595 642834 509
824346 618867 509
988682 672404 525
431758 739517 509
625823 848049 525
