548338 975190 525
11619 764980 509
962061 951455 414
980077 951563 458
822714 413990 509
142644 539629 470
13904 756936 509
240335 822208 509
680065 549529 509
400313 432962 449
658698 6945 509
376971 229153 443
9171 118580 354
873145 129610 525
547686 7094 470
407815 437988 449
98505 640721 509
384458 673928 509
426155 121293 449
547771 378140 470
282279 842247 525
678557 869343 525
783865 220775 509
966070 94596 525
675845 541734 509
488734 604160 470
81018 370339 443
112661 444620 449
822825 313544 509
541778 237608 470
480218 836347 509
210109 817669 509
38580 645629 509
385277 780351 509
720692 122591 509
249204 614970 470
521897 365148 470
696292 716281 504
594974 98706 470
913105 590087 525
204222 19558 383
560563 668828 509
688336 948722 525
981366 935737 507
40721 4244 324
731482 429901 509
70828 968734 525
942036 973625 458
903264 291625 525
204224 662676 509
693864 650410 442
700253 98613 509
772219 495801 509
816840 348481 509
883179 246995 525
83324 993097 525
886894 775700 525
909931 929152 476
794242 118396 509
50305 170332 383
40053 620617 470
210052 620105 470
514069 806339 509
342788 253800 407
506988 95284 449
80808 910915 525
67128 745467 509
427393 589469 470
186838 568588 470
408895 379056 436
380536 432716 449
643928 540139 509
356659 761512 509
963804 503384 525
114234 283266 443
824822 66180 509
218262 460880 449
772100 649520 504
5272 474785 449
586053 329808 470
662132 258233 509
848007 912125 476
894788 868780 445
337488 413175 449
642796 437097 509
482171 67413 449
666704 976620 525
111984 550094 470
113567 298600 443
935169 73045 525
166919 25769 383
816546 554535 509
881350 389587 525
605633 756539 509
599098 282537 470
329536 502261 449
817532 153510 509
647620 709989 504
393588 838813 525
905626 293625 525
143952 287760 443
324294 503836 449
522224 665020 509
53046 751485 509
223074 313386 443
190363 108210 383
449468 308416 449
875372 148758 525
50992 72613 340
803158 403488 509
740550 853708 525
980632 363764 525
77894 16815 351
662458 383961 509
50335 605510 470
607412 4390 470
681338 680493 336
333991 588903 470
354182 326241 441
186960 571473 470
759938 595246 509
896808 429287 525
936002 421520 525
834251 70535 509
893792 427729 525
72164 957927 525
11755 164201 383
796827 225521 509
743598 224831 509
815430 347452 509
187646 439087 449
586658 94949 470
316626 729599 509
912061 859952 476
162490 822758 509
167044 287628 443
980541 425859 525
283349 235976 407
311006 963415 525
120100 557067 470
393721 308859 441
192769 934230 525
661312 730370 504
769530 913064 525
316774 801211 509
612157 991287 525
101610 818394 509
218866 121628 386
793421 127049 509
52994 137706 354
124265 665461 509
176097 350200 443
843962 391178 525
345556 721425 509
263598 562939 470
858524 457101 525
719263 764433 424
773777 196914 509
549415 709475 509
338787 683284 509
921633 308005 525
703028 608197 509
614057 23158 470
4292 696738 509
476789 897468 525
68411 846857 525
175260 95029 383
192216 604997 470
420738 920674 525
556184 642995 509
797362 126717 509
22840 348540 443
142243 899969 525
233790 984149 525
94864 921073 525
848500 940118 507
93972 114037 354
996849 844796 507
566645 409068 470
401292 693320 509
740343 534184 509
971184 820283 525
856010 370945 525
16433 318687 443
549292 861542 525
992607 535804 525
993056 417694 525
945099 356578 525
73956 741156 509
636494 426908 509
418226 622453 470
904941 438717 525
220577 582891 470
46121 902416 525
331412 204942 443
614156 601321 403
709845 6461 509
870668 897132 445
315072 584815 470
832946 786677 468
1230 187153 383
558442 243375 470
455177 113947 449
835693 345182 509
674841 224418 509
813135 757227 468
634517 940257 525
15754 32383 308
44827 745679 509
723484 896210 525
341199 76541 443
519896 644027 509
289486 128590 443
489360 654737 509
218792 325737 443
972573 588166 525
405589 597599 470
359381 411348 449
758915 89960 509
126890 23780 354
827458 763140 468
173723 245239 443
236531 783788 509
180364 275421 443
124716 700513 509
927639 267844 525
568480 329061 470
