1 10 20
100 200 125
201 210 89
321834 20845 443
169438 79452 383
218951 179439 386
877588 553341 525
265412 845797 525
527715 256475 470
761269 25756 509
328091 904228 525
980286 605077 525
728338 570062 509
648790 795048 504
857435 758566 525
971711 19489 525
54805 426050 449
133039 92636 354
962541 272510 525
853430 374532 525
376432 848261 525
615298 314245 470
926895 312273 525
416743 355958 449
68953 418942 449
437974 243047 449
520441 567384 452
803657 685856 504
575297 365897 470
78785 78164 307
286712 174994 443
668389 612103 509
23555 755753 509
403164 483309 449
27668 804724 509
456889 719215 509
56893 26084 340
169772 103085 383
743469 294927 509
199615 497028 449
935796 564170 525
317535 261541 407
787430 97416 509
246556 431735 449
758570 121118 509
646710 80505 509
498892 797498 509
100642 439534 449
181611 942992 525
516299 337712 470
558200 585701 434
41686 256315 443
669067 204337 509
564108 817907 509
566679 986547 525
267712 405006 441
116075 709135 509
934487 702975 525
175225 242111 443
941331 51932 525
272007 958617 525
583493 731332 509
566917 411691 470
124784 283595 443
320837 164485 443
765313 69161 509
154989 93154 375
641751 493691 509
425236 900172 525
993893 381781 525
347508 807153 509
680605 908512 525
35715 511249 449
944397 15256 525
774074 22570 509
803789 668295 504
991321 83405 525
900197 874374 445
778338 497245 509
397072 347167 436
425208 582973 470
749167 626933 504
556893 217728 470
829751 405796 509
151838 143674 370
516311 550048 452
405397 96167 443
175871 508316 449
141442 404235 443
638607 906222 525
454212 105370 449
246524 5985 443
306407 618388 470
834573 749910 468
752039 688690 504
661113 192803 509
167400 101392 383
482638 377088 449
809557 552500 509
872020 806391 525
185873 880581 525
252693 567362 470
162935 128038 383
447869 879206 525
386069 990305 525
75054 969872 525
203023 681733 509
931536 835536 525
180808 292849 443
695580 928364 525
952419 754469 525
505981 797179 509
26234 533681 470
488465 620371 470
638491 744132 504
520979 691881 509
188438 110277 383
492197 918076 525
859779 507609 525
807246 290571 509
640170 209431 509
850654 440424 525
396756 397942 330
265024 301975 407
63150 396318 443
875740 360025 525
151593 631491 509
428135 759006 509
209396 829343 509
490640 188831 449
449517 920230 525
309461 89517 443
316613 87676 443
695924 369356 509
166778 79396 383
896481 527446 525
622710 84346 470
892740 674470 525
317405 613580 470
940376 559119 525
933417 610929 525
830121 459868 509
578333 122800 470
823020 816460 450
934265 810781 525
61003 538007 470
932133 72911 525
613340 57061 470
84819 281009 443
927773 484248 525
184808 258109 443
31488 773441 509
61070 837852 525
345578 163008 443
281431 183764 443
320153 544758 470
321552 553490 470
121078 517178 470
353779 54237 443
611304 885165 525
519552 754563 509
61693 582262 470
369326 259184 441
46385 232145 443
567332 442176 470
12961 879122 525
668352 548780 509
328651 677274 509
225291 207941 386
769321 43096 509
358210 139112 443
132035 607469 470
355499 632921 509
696379 486557 509
999737 217718 525
549840 567483 421
51912 264253 443
562237 606944 434
304345 891635 525
362458 461848 449
514297 263334 470
164844 352564 443
342993 290998 384
624423 655370 509
163146 329684 443
965747 434476 525
184230 814997 509
186987 603753 470
808814 178533 509
406542 273308 441
938454 703978 525
648858 465380 509
661006 339647 509
42980 805178 509
809710 505947 509
634996 425317 509
939850 163418 525
15636 515521 470
133517 259958 443
28508 209734 383
991261 911171 507
614902 951398 525
949538 224789 525
441811 599547 470
251438 622805 470
965483 16340 525
355546 263401 441
460712 986077 525
780423 452775 509
340692 736326 509
325003 433883 449
980645 876920 507
508606 20619 449
852901 639691 525
45814 454189 449
473347 720642 509
735737 185920 509
420262 132819 449
367286 724801 509
4574 45988 324
757141 321489 509
407461 12912 443
251728 845129 525
256088 667169 509
183944 700389 509
257199 737786 509
179592 56062 383
829021 959135 525
990578 39088 525
728177 225239 509
392183 667645 509
849783 990280 507
32720 708230 509
32293 122164 354
863957 631381 525
163560 952003 525
803133 783711 468
384631 24684 443
343512 587763 470
454599 814713 509
327206 321237 384
472357 437192 444
837483 208728 509
629835 741087 504
598169 385935 470
291435 736053 509
947341 676772 525
98198 429507 449
494690 764835 509
825045 488615 509
11351 307939 443
176018 369870 443
620667 556703 447
1 100 119
