777014 507348 509
468573 25267 449
919525 330057 525
822677 505633 509
365271 661484 509
552315 772516 509
259401 887251 525
387518 698174 509
882170 51941 525
747474 116171 509
809060 929018 525
65614 187243 383
881538 454756 525
580972 776026 509
854420 932613 476
256015 401821 441
415180 688536 509
26070 647244 509
405823 96511 443
179241 365879 443
397747 869483 525
104853 30523 351
291226 944794 525
64909 337290 443
288698 576873 470
163257 695756 509
382322 674426 509
854582 666125 525
377577 337842 441
142507 778759 509
481898 848260 525
842284 465548 525
678901 269647 509
857833 913306 476
23539 917638 525
610074 749737 509
759735 946587 525
632015 24688 509
130573 756640 509
244491 621477 470
919895 327058 525
336275 462367 449
960306 297368 525
847309 969523 507
405493 417193 449
166408 723335 509
998262 338548 525
845532 271518 525
415226 244167 449
684122 584900 509
244562 660210 509
995641 151157 525
408793 214341 443
785825 930689 525
200645 471743 449
38986 368658 443
160831 75213 383
641157 578288 509
537143 843781 525
292242 659091 509
679456 425485 509
223741 594797 470
514724 918346 525
673134 779430 504
279845 870887 525
518756 164202 470
557650 368666 470
936620 198751 525
629276 151515 509
856666 878446 432
500125 710101 509
553015 141148 470
36619 829422 509
645913 232607 509
519917 938053 525
508438 594014 470
170891 692103 509
890529 606084 525
363431 78742 443
408418 134029 443
904786 393798 525
385393 946244 525
600979 40823 470
209902 512529 470
514301 960913 525
978552 758631 525
187172 428158 449
473066 973950 525
879481 553451 525
49081 357013 443
836606 662220 504
998050 904790 507
517156 142036 470
351624 476618 449
298276 474629 449
573767 10305 470
963952 512605 525
722958 348721 509
102442 497205 449
786924 522387 509
912207 823871 525
81525 511460 449
462813 339559 449
410015 843095 525
722079 274804 509
246118 593366 470
952274 844555 507
423861 626856 509
853972 871506 419
452176 913323 525
365836 442398 449
115087 168309 383
624539 826781 509
611706 776957 509
325959 886317 525
923893 388726 525
415813 934715 525
572510 701256 509
394580 879207 525
240872 155684 443
214904 969703 525
63182 327590 443
33466 929255 525
941528 698737 525
506201 673182 509
381313 951500 525
372402 92615 443
869627 845271 419
103634 683577 509
321944 837417 509
348481 535172 470
822195 834474 419
201185 587964 470
495557 957085 525
34630 518644 470
322195 887602 525
723867 618547 509
15988 88047 351
621628 291479 470
272681 832871 509
34295 363183 443
611086 712276 509
599189 691079 509
715977 333884 509
133395 15120 354
169848 37029 383
640128 130629 509
570516 208507 470
898775 222136 525
409969 54010 443
869656 3851 525
857842 339409 525
662723 238608 509
368190 642884 509
378985 118689 443
436930 378778 449
563516 36962 470
316648 486296 449
362407 934956 525
865384 50026 525
660463 314394 509
288639 411639 449
430637 43390 449
749849 171328 509
66160 722052 509
465354 607005 470
424899 726043 509
921985 677325 525
428360 896333 525
897431 16438 525
740715 703426 504
565738 203043 470
965432 357792 525
20164 19251 274
922866 261985 525
212543 712699 509
39205 635068 509
841023 459843 525
827426 683919 504
452753 624129 470
417320 763231 509
80463 561330 470
86429 861385 525
192390 765174 509
80120 603887 470
322288 503921 449
90345 977297 525
645898 13153 509
681932 535684 509
171255 726243 509
968391 757065 525
488170 506695 426
646812 329876 509
686610 961527 525
425878 72583 449
26901 316181 443
762891 434391 509
568194 683265 509
233022 570763 470
639788 443821 509
670188 948815 525
634734 465503 509
787021 393275 509
278064 275528 389
902380 55481 525
651728 566890 509
637664 481657 509
165160 781375 509
235556 463780 449
440629 617078 470
672110 55663 509
655681 865039 525
421639 950268 525
563922 579643 421
141093 121975 344
855022 243150 525
857887 253739 525
250201 226290 443
849028 625416 525
797023 622404 509
280312 310992 389
323960 625148 470
876520 273089 525
197595 677256 509
984670 671659 525
739982 271868 509
249686 858273 525
710598 793549 468
349325 435044 449
180765 809881 509
821121 635078 504
190305 776158 509
84256 506093 449
405780 974302 525
434302 370160 449
439673 677970 509
851493 444621 525
438875 197879 449
67357 119939 354
585115 338888 470
38465 854648 525
324126 243640 407
8565 951851 525
282377 375173 441
550381 58371 470
225952 489341 449
641721 329994 509
54801 486494 449
290829 417435 449
144704 228249 386
