111186 434504 449
369779 56684 443
299206 304199 371
923241 564330 525
352142 90776 443
556936 552696 421
947809 900089 507
279986 20981 443
933591 88612 525
789316 73911 509
378512 837705 509
236298 180253 443
340713 545435 470
33837 287498 443
415418 767346 509
819089 947690 525
500380 546849 470
784225 950310 525
207884 177889 373
977757 858566 507
611846 232253 470
434677 376467 449
498996 969718 525
604559 489175 470
157777 33188 383
602693 631962 509
282994 741226 509
105904 589738 470
773438 872699 525
758737 490834 509
996647 217797 525
656059 527599 509
494853 361839 449
103937 703047 509
164792 746721 509
791226 315410 509
310531 34463 443
378110 245066 441
314290 809230 509
612297 513119 452
228573 77366 386
183333 331200 443
886281 763584 525
421648 895526 525
898470 671833 525
808042 592175 509
985506 594148 525
185556 653657 509
159298 563285 470
105299 611254 470
45462 872558 525
337096 941151 525
515527 500134 470
93832 733617 509
733235 314859 509
668724 466158 509
885802 512514 525
247073 311604 407
304400 290642 371
836509 516009 509
888811 92741 525
231827 662687 509
906353 94207 525
756278 35343 509
573016 71817 470
439735 618919 470
996594 766131 525
961805 198391 525
546926 641211 509
38772 99997 351
286235 484975 449
11333 193454 383
675030 300190 509
654119 113763 509
722446 836622 468
175984 175900 241
970366 660705 525
53070 291778 443
96222 723714 509
746222 959350 525
269117 890273 525
115876 26690 354
592821 470862 470
540510 909159 525
127563 543111 470
744949 757295 424
547239 833800 509
346831 477781 449
249397 662896 509
669910 172899 509
492031 681475 509
85431 381745 443
815851 492123 509
793732 198696 509
129824 617853 470
291171 154828 443
93372 579421 470
435001 277955 449
211139 421155 449
868192 547148 525
282658 297412 389
792487 104497 509
676707 980680 525
690229 925270 525
99256 627308 509
289027 220105 443
662577 537443 509
560364 156763 470
371260 743876 509
479978 2720 449
713433 927840 525
925534 63235 525
170491 262673 443
745839 282246 509
820445 934518 525
351296 963122 525
851742 753589 525
947384 324419 525
769785 69694 509
176707 290273 443
319247 134971 443
974773 979765 383
925797 720818 525
358305 554861 470
900223 363917 525
44703 157824 383
571132 98467 470
100250 129394 354
765788 775240 468
771671 310811 509
362279 268118 441
183520 781763 509
737141 522372 509
595828 616347 447
553871 446107 470
920486 767052 525
772542 849058 525
264436 358557 441
442528 774210 509
744456 690673 504
669947 565264 509
795764 635024 504
942936 177199 525
405304 257864 441
286541 653090 509
316991 640133 509
131228 389908 443
876533 688074 525
386243 955318 525
344432 260062 407
525329 286854 470
340014 909536 525
675220 545859 509
387467 612419 470
133514 214533 383
560496 759076 509
609783 447500 470
884668 362821 525
852959 734213 525
385535 80934 443
538295 853454 525
872071 688480 525
58800 575333 470
925318 642880 525
159314 978252 525
609196 467977 470
156094 986831 525
99404 544003 470
465302 617212 470
345023 461456 449
117838 996381 525
936109 32070 525
265623 332239 407
894232 747144 525
881891 330603 525
977466 564484 525
687115 326976 509
286641 727936 509
19423 992263 525
23333 136521 354
352009 820814 509
563977 732340 509
756233 321972 509
704589 936792 525
648281 293130 509
25450 556832 470
139190 414588 449
49784 963817 525
671687 977965 525
232376 374481 441
143046 748905 509
432685 605751 470
721958 504242 509
925000 926169 339
278442 249185 407
628793 569243 509
766284 971502 525
301563 53565 443
541071 684729 509
914744 45649 525
969557 337007 525
168480 157915 370
639436 66397 509
565255 504189 470
802279 588712 509
417568 552293 470
47550 905889 525
74688 547626 470
208877 307619 443
724544 751735 424
999403 36527 525
871752 130342 525
550228 593558 434
763221 995495 525
109124 515223 470
442322 23561 449
264817 702803 509
809823 963990 525
750924 408345 509
337748 435941 449
816409 730159 468
970063 973756 458
526750 353407 470
512361 110261 470
244251 323816 407
151174 456336 449
454059 540530 470
162097 407234 443
387876 933104 525
387555 465334 449
896998 624304 525
658788 743919 504
332109 800696 509
404252 753112 509
577265 63337 470
562955 451576 470
920292 815118 525
362473 20549 443
252437 939111 525
589778 858108 525
635356 976908 525
306542 220479 443
822969 892217 525
347007 990911 525
372417 319949 441
723989 229422 509
150895 127242 375
108219 390466 443
913416 121788 525
597839 630129 509
